# oST version 5.0 parameters


[image]

width
1280

height
1024

[narrow_stereo]

camera matrix
3442.671680 0.000000 317.304312
0.000000 3412.987004 541.554584
0.000000 0.000000 1.000000

distortion
-0.027384 -0.413971 0.005904 -0.028471 0.000000

rectification
1.000000 0.000000 0.000000
0.000000 1.000000 0.000000
0.000000 0.000000 1.000000

projection
3377.265381 0.000000 306.825728 0.000000
0.000000 3425.320312 543.137548 0.000000
0.000000 0.000000 1.000000 0.000000

